<?xml version="1.0" encoding="UTF-8"?>
<svg width="70px" height="63px" viewBox="0 0 70 63" version="1.1" xmlns="http://www.w3.org/2000/svg" xmlns:xlink="http://www.w3.org/1999/xlink">
    <!-- Generator: Sketch 51.3 (57544) - http://www.bohemiancoding.com/sketch -->
    <title>Combined shape 10578</title>
    <desc>Created with Sketch.</desc>
    <defs></defs>
    <g id="Page-1" stroke="none" stroke-width="1" fill="none" fill-rule="evenodd">
        <g id="Artboard" transform="translate(-495.000000, -786.000000)" fill="#ED8B00">
            <g id="Budes-mezi-svymi" transform="translate(333.000000, 659.000000)">
                <g id="1" transform="translate(55.000000, 81.000000)">
                    <path d="M176.665552,91.31627 C176.872912,91.52193 176.987464,91.795255 176.988616,92.086715 C176.989696,92.37824 176.877376,92.652605 176.67196,92.8595 C176.465608,93.067435 176.19064,93.18177 175.897456,93.18177 C175.6078,93.18177 175.335064,93.069515 175.129432,92.86574 L165.551632,83.313665 L158.324776,90.54043 C154.703104,94.16249 149.894944,96.3305 144.786328,96.64549 L144.683008,96.65199 L143.47996,97.858975 L143.793448,98.034605 C145.31884,98.889615 147.048352,99.34169 148.795216,99.34143 C149.075152,99.34143 149.358832,99.329795 149.638408,99.307045 L150.070552,99.27162 C150.10036,99.26876 150.130024,99.26772 150.159544,99.26772 C150.446464,99.26772 150.727624,99.38407 150.931024,99.58739 L158.408944,107.06629 C158.834104,107.491715 158.834104,108.18351 158.408944,108.60874 C158.202808,108.814855 157.928704,108.928345 157.637464,108.928345 C157.34644,108.928345 157.072624,108.814855 156.866344,108.60874 L149.74576,101.48825 L149.622496,101.49631 C149.3476,101.51438 149.068816,101.523675 148.79392,101.523675 C146.412664,101.523675 144.094768,100.844295 142.090936,99.5584 L141.905752,99.43971 L132.763984,108.615175 C132.558064,108.82233 132.283744,108.936145 131.991352,108.936145 C131.700832,108.936145 131.42752,108.82337 131.221744,108.618035 C130.795576,108.19365 130.794352,107.50153 131.218792,107.075585 L143.4364,94.81236 C143.631952,94.61606 143.892304,94.50231 144.16972,94.492235 C148.932376,94.319465 153.411064,92.3681 156.780664,88.99824 L170.006704,75.77269 C170.512864,75.2666 170.791576,74.592615 170.791576,73.875145 C170.791576,73.15774 170.512792,72.483755 170.006704,71.977665 C169.500616,71.47151 168.82684,71.192725 168.109288,71.192725 C167.392384,71.192725 166.71904,71.47099 166.213024,71.976365 L164.536216,73.65304 C164.330296,73.859155 164.056336,73.97245 163.764952,73.97245 C163.473928,73.97245 163.200112,73.858895 162.993976,73.65304 C162.5686,73.22755 162.5686,72.535495 162.993976,72.11033 L166.500664,68.603385 C167.007544,68.09697 167.286904,67.423245 167.286904,66.70584 C167.286904,65.988955 167.007544,65.31497 166.500664,64.808295 C165.994144,64.301425 165.320224,64.02238 164.603248,64.02238 C163.886272,64.02238 163.212352,64.301425 162.705688,64.808295 L159.199144,68.3155 C158.993008,68.52168 158.719048,68.63491 158.427592,68.63491 C158.136568,68.63491 157.862824,68.52142 157.656616,68.31524 C157.231312,67.890075 157.231312,67.19802 157.656616,66.772595 L162.49804,61.931395 C163.5442,60.88496 163.5442,59.18248 162.49804,58.136305 C161.991808,57.630215 161.318032,57.351365 160.60048,57.351365 C159.882784,57.351365 159.208864,57.630215 158.70292,58.136305 L153.861496,62.977765 C153.655504,63.18388 153.381544,63.297175 153.090304,63.297175 C152.798992,63.297175 152.525176,63.18388 152.318968,62.977505 C151.89388,62.55234 151.89388,61.860285 152.318968,61.435055 L158.494624,55.259145 C159.001576,54.75299 159.280864,54.079005 159.280864,53.36186 C159.280864,52.644975 159.00172,51.97099 158.494984,51.464315 C157.988032,50.957445 157.31404,50.678075 156.597568,50.678075 C155.880664,50.678075 155.206744,50.957445 154.699864,51.464315 L145.474936,60.68918 L145.63168,60.880085 C147.2254,62.82183 147.086512,65.62606 145.308976,67.403875 C144.39184,68.32096 143.170216,68.826335 141.869032,68.826335 C141.804376,68.826335 141.73972,68.824255 141.675136,68.821655 L141.379648,68.8095 L141.391672,69.10486 C141.394336,69.17025 141.396496,69.235445 141.396496,69.30116 C141.396496,70.600445 140.890336,71.822185 139.971544,72.74109 C139.054336,73.658435 137.832568,74.16381 136.5316,74.16381 C136.4668,74.16381 136.402072,74.16147 136.337272,74.15913 L136.042792,74.147495 L136.05424,74.441815 C136.056688,74.50753 136.059064,74.57266 136.059064,74.638635 C136.059064,75.937985 135.552976,77.159465 134.634256,78.07863 C133.716904,78.995975 132.49528,79.500765 131.194168,79.500765 C131.128936,79.500765 131.063704,79.498945 130.9984,79.49641 L130.702408,79.483995 L130.714432,79.77955 C130.768792,81.135515 130.25212,82.460735 129.296752,83.416105 C128.377816,84.33501 127.156048,84.8411 125.856664,84.8411 C125.011744,84.8411 124.180432,84.62179 123.452584,84.2067 L123.271864,84.103545 L109.605472,97.76999 C109.399336,97.97617 109.125376,98.0894 108.83428,98.0894 C108.542752,98.0894 108.269008,97.97617 108.062944,97.76999 C107.637784,97.344565 107.637784,96.65277 108.062944,96.227345 L121.645888,82.64462 L118.733272,79.73197 C117.81592,78.814625 117.310768,77.592885 117.310768,76.29204 C117.310768,74.99087 117.81592,73.76939 118.733272,72.852045 C119.381704,72.20367 120.193216,71.753675 121.07968,71.55146 L121.40764,71.47645 L121.266448,71.171015 C120.412024,69.32469 120.803056,67.11937 122.239312,65.683 C122.955208,64.96683 123.857584,64.499025 124.848808,64.329635 L125.16064,64.276335 L125.061784,63.975775 C124.899784,63.4834 124.817776,62.97029 124.817776,62.45094 C124.817776,61.151655 125.323792,59.929915 126.242584,59.01101 C126.95596,58.2977 127.859488,57.83061 128.855824,57.66018 L129.167656,57.606945 L129.068872,57.306125 C128.490208,55.546965 128.941216,53.643765 130.245712,52.33902 C131.164792,51.420375 132.386416,50.91422 133.685872,50.91422 C134.334016,50.91422 134.962144,51.03863 135.55312,51.28407 L136.118896,51.518915 L135.914632,50.94139 C135.691144,50.30907 135.577744,49.64412 135.577744,48.96526 L135.577744,47.17737 C135.577744,46.576055 136.067056,46.086735 136.668472,46.086735 L147.374296,46.086735 C149.808256,46.086735 152.155096,47.1086 153.8134,48.89051 L154.089088,49.186845 L154.274992,49.08551 C154.981672,48.700385 155.784904,48.49661 156.598144,48.49661 C157.8976,48.49661 159.119224,49.002765 160.038304,49.921345 C160.957168,50.84051 161.463112,52.06225 161.463112,53.3616 C161.463112,53.881925 161.380744,54.395815 161.218096,54.889295 L161.119024,55.18953 L161.430928,55.24309 C162.425896,55.41404 163.328704,55.88087 164.041216,56.593335 C165.345424,57.897105 165.796792,59.799265 165.21928,61.557905 L165.120568,61.858465 L165.432616,61.9117 C166.424848,62.080635 167.328016,62.5487 168.044848,63.26539 C168.963568,64.18449 169.469656,65.40597 169.469656,66.70532 C169.469656,67.422465 169.31788,68.112505 169.018504,68.75594 L168.87652,69.061635 L169.204912,69.136645 C170.094256,69.340485 170.905264,69.78918 171.550528,70.434435 C173.447224,72.33146 173.447224,75.417855 171.550528,77.31462 L167.094088,81.770955 L176.665552,91.31627 Z M127.754296,81.873655 C128.260384,81.36776 128.539024,80.69358 128.539168,79.97611 C128.539168,79.258705 128.260456,78.58472 127.754296,78.07863 L124.07056,74.394755 C123.56404,73.88782 122.89012,73.608775 122.173144,73.608775 C121.456384,73.608775 120.78232,73.88782 120.275512,74.394755 C119.229352,75.441125 119.229352,77.14367 120.275512,78.19004 L123.959464,81.873655 C124.465768,82.38033 125.139544,82.659635 125.85688,82.659635 C126.574,82.659635 127.247704,82.38033 127.754296,81.873655 Z M133.091944,76.53592 C133.59868,76.028985 133.877824,75.35526 133.877824,74.638375 C133.877824,73.92149 133.598608,73.247765 133.091728,72.74083 L127.576168,67.22545 C127.069648,66.718515 126.395656,66.43947 125.67868,66.43947 C124.961992,66.43947 124.287928,66.718515 123.781264,67.22545 C123.275248,67.73154 122.996464,68.405265 122.996464,69.12267 C122.996464,69.8404 123.275248,70.51432 123.781264,71.020215 L129.296896,76.53592 C129.802696,77.04201 130.47676,77.32086 131.194312,77.32086 C131.911936,77.32086 132.585928,77.04201 133.091944,76.53592 Z M138.429448,71.198445 C138.936328,70.69151 139.215328,70.017525 139.215112,69.30064 C139.215112,68.58395 138.936112,67.91029 138.429376,67.403355 L131.57836,60.55268 C131.0722,60.047045 130.398784,59.76878 129.681952,59.76878 C128.9644,59.76878 128.290624,60.047565 127.78468,60.553655 C127.277656,61.06007 126.99844,61.733795 126.99844,62.45094 C126.99844,63.16789 127.277584,63.84155 127.784392,64.348485 L134.6344,71.198445 C135.140344,71.704535 135.814192,71.98306 136.5316,71.98306 C137.249224,71.98306 137.923216,71.704535 138.429448,71.198445 Z M143.767024,65.860905 C144.273616,65.354815 144.552904,64.68057 144.552904,63.9631 C144.552904,63.246475 144.273616,62.57249 143.767024,62.06562 L135.58264,53.881405 C135.076696,53.375055 134.402776,53.09653 133.685224,53.09653 C132.967672,53.09653 132.293824,53.375055 131.787592,53.881405 C130.741432,54.92784 130.741432,56.63006 131.787592,57.676495 L139.972048,65.860905 C140.478064,66.36706 141.152056,66.645585 141.869608,66.645585 C142.587088,66.645585 143.260936,66.36706 143.767024,65.860905 Z M143.93284,59.146535 L152.4508,50.629 L152.216656,50.3768 C150.969256,49.03663 149.204104,48.268005 147.373864,48.268005 L137.75884,48.268005 L137.75884,48.96526 C137.75884,49.96639 138.149584,50.906745 138.859,51.613035 C139.563808,52.31471 140.499592,52.70081 141.493984,52.70081 L145.253824,52.683195 C145.857616,52.683195 146.346856,53.17024 146.349376,53.768695 C146.350888,54.060415 146.238712,54.33478 146.033656,54.541675 C145.828672,54.74857 145.55536,54.863425 145.263904,54.864725 L141.493624,54.882275 C141.07696,54.882275 140.657416,54.837815 140.245072,54.74961 L139.343488,54.55721 L143.93284,59.146535 Z" id="Combined-shape-10578"></path>
                </g>
            </g>
        </g>
    </g>
</svg>